…
### Frequency analysis with numerical data

``` r
boston %>%
  pivot_longer(cols = where(is.numeric), names_to = "column", values_to="value") %>%
  dplyr::select(column, value) %>%
  group_by(column) %>%
  summarise(count = n(),
            n_miss = sum(is.na(value)),
            n_distinct = n_distinct(value)) %>%
  mutate(count = count - n_miss, pct_distinct = n_distinct / count) %>%
  arrange(desc(pct_distinct))
```

    ## # A tibble: 21 × 5
    ##    column      count n_miss n_distinct pct_distinct
    ##    <chr>       <int>  <int>      <int>        <dbl>
    ##  1 pid          9959      0       9959     1       
    ##  2 land_sf      9959      0       4550     0.457   
    ##  3 av_total     9959      0       4384     0.440   
    ##  4 living_area  9959      0       2126     0.213   
    ##  5 yr_built     9959      0        170     0.0171  
    ##  6 home_age     9959      0        161     0.0162  
    ##  7 yr_remod     9959      0         77     0.00773 
    ##  8 r_total_rms  9959      0         15     0.00151 
    ##  9 r_bdrms      9959      0         10     0.00100 
    ## 10 r_fplace     9959      0          6     0.000602
    ## # … with 11 more rows
…
  pivot_longer(cols = where(is.numeric), names_to = "column", values_to="value") %>%
  dplyr::select(column, value) %>%
  group_by(column) %>%
  summarise(count = n(),
            n_miss = sum(is.na(value)),
            n_distinct = n_distinct(value),
            mean = mean(value, na.rm = TRUE),
            median = median(value, na.rm = TRUE),
            min = min(value, na.rm = TRUE),
            max = max(value, na.rm = TRUE),
            sd = sd(value, na.rm = TRUE),
            )
```

    ## # A tibble: 21 × 9
    ##    column          count n_miss n_distinct     mean median    min    max      sd
    ##    <chr>           <int>  <int>      <int>    <dbl>  <dbl>  <dbl>  <dbl>   <dbl>
    ##  1 av_total         9959      0       4384   4.49e5 418700 134800 1.10e6 1.48e+5
    ##  2 home_age         9959      0        161   6.38e1     67      6 2.97e2 3.98e+1
    ##  3 land_sf          9959      0       4550   5.94e3   5320    920 1.07e5 2.95e+3
    ##  4 living_area      9959      0       2126   1.66e3   1554    332 8.62e3 5.46e+2
    ##  5 median_income.x  9959      0          5   6.60e4  66735  48841 7.57e4 9.75e+3
    ##  6 median_income.y  9959      0          5   6.60e4  66735  48841 7.57e4 9.75e+3
    ##  7 num_floors       9959      0          5   1.73e0      2      1 3   e0 4.48e-1
    ##  8 pid              9959      0       9959   7.11e4  71180     10 1.42e5 4.10e+4
    ##  9 pop_density.x    9959      0          5   1.14e4  11505   6207 1.59e4 3.29e+3
    ## 10 pop_density.y    9959      0          5   1.14e4  11505   6207 1.59e4 3.29e+3
    ## # … with 11 more rows
…
  
boston_recipe <-
  recipe(av_total ~ own_occ+land_sf+home_age+   yr_remod+living_area+   num_floors+structure_class+ r_bldg_styl+    r_roof_typ+ r_ext_fin+  r_total_rms+r_bdrms+r_full_bth+r_half_bth+r_bth_style+r_kitch+r_kitch_style+r_heat_typ+r_ac+    r_fplace+   r_ext_cnd+  r_ovrall_cnd+   r_int_cnd   +r_int_fin+ r_view+ population.y+   pop_density.y+median_income.y+city_state.y+remod_yes+built_in_90s, data = train) %>%
  #step_impute_median(all_numeric_predictors()) %>% # missing values numeric 
  step_novel(all_nominal_predictors()) %>% # new factor levels 
  #step_unknown(all_nominal_predictors()) %>% # missing values 
  step_dummy(all_nominal_predictors(),one_hot = T) %>%
  step_nzv(all_predictors()) 

## Check the recipe results m
bake(boston_recipe %>% prep(),train %>% sample_n(1000))
```

    ## # A tibble: 1,000 × 48
    ##    land_sf home_age living_area num_fl…¹ r_tot…² r_bdrms r_ful…³ r_hal…⁴ r_fpl…⁵
    ##      <dbl>    <dbl>       <dbl>    <dbl>   <dbl>   <dbl>   <dbl>   <dbl>   <dbl>
    ##  1    5500       72        1064      1         7       4       2       0       1
    ##  2    3253       10        1735      2         7       4       1       1       0
    ##  3    7775       21        2124      2         7       4       2       1       1
    ##  4    4100      122        1584      2         6       2       1       1       0
    ##  5    8000        8        2759      2         8       4       2       1       0
    ##  6    4128       22        1436      2.5       7       3       1       1       0
    ##  7    8012        7        1718      1         7       4       1       1       0
    ##  8    5200       62        1140      1         6       3       2       0       2
    ##  9    6807      132        3544      2        10       4       2       0       1
    ## 10    3400       72        1368      2         6       3       1       0       1
    ## # … with 990 more rows, 39 more variables: population.y <dbl>,
    ## #   pop_density.y <dbl>, median_income.y <dbl>, av_total <dbl>,
    ## #   own_occ_N <int>, own_occ_Y <int>, r_bldg_styl_CL <int>,
    ## #   r_bldg_styl_CP <int>, r_bldg_styl_RN <int>, r_roof_typ_G <int>,
    ## #   r_roof_typ_H <int>, r_roof_typ_L <int>, r_ext_fin_F <int>,
    ## #   r_ext_fin_M <int>, r_ext_fin_W <int>, r_bth_style_M <int>,
    ## #   r_bth_style_N <int>, r_bth_style_S <int>, r_kitch_style_M <int>, …
…
    ## Loading required package: Matrix

    ## 
    ## Attaching package: 'Matrix'

    ## The following objects are masked from 'package:tidyr':
    ## 
    ##     expand, pack, unpack

    ## Loaded glmnet 4.1-4

    ## # A tibble: 48 × 3
    ##    term         estimate penalty
    ##    <chr>           <dbl>   <dbl>
    ##  1 (Intercept) -89844.      0.01
    ##  2 land_sf          7.79    0.01
    ##  3 home_age       218.      0.01
    ##  4 living_area    101.      0.01
    ##  5 num_floors   -1768.      0.01
    ##  6 r_total_rms   2467.      0.01
    ##  7 r_bdrms      -2380.      0.01
    ##  8 r_full_bth   16962.      0.01
    ##  9 r_half_bth   17838.      0.01
    ## 10 r_fplace     19619.      0.01
    ## # … with 38 more rows

``` r
lm_wflow %>%
  pull_workflow_fit() %>%
  tidy()%>%
  mutate_if(is.numeric,round,4)
```

    ## Warning: `pull_workflow_fit()` was deprecated in workflows 0.2.3.
    ## ℹ Please use `extract_fit_parsnip()` instead.

    ## # A tibble: 48 × 3
    ##    term         estimate penalty
    ##    <chr>           <dbl>   <dbl>
    ##  1 (Intercept) -89844.      0.01
    ##  2 land_sf          7.79    0.01
    ##  3 home_age       218.      0.01
    ##  4 living_area    101.      0.01
    ##  5 num_floors   -1768.      0.01
    ##  6 r_total_rms   2467.      0.01
    ##  7 r_bdrms      -2380.      0.01
    ##  8 r_full_bth   16962.      0.01
    ##  9 r_half_bth   17838.      0.01
    ## 10 r_fplace     19619.      0.01
    ## # … with 38 more rows
…
rf_grid <- grid_regular(trees(c(100,300)), min_n(c(1,5)), levels = 5)

doParallel::registerDoParallel()

rf_grid_search <-
  tune_grid(
    rf_wflow,
    resamples = kfold_splits,
    grid = rf_grid
  )

rf_grid_search %>%  collect_metrics()
```

    ## # A tibble: 50 × 8
    ##    trees min_n .metric .estimator      mean     n   std_err .config             
    ##    <int> <int> <chr>   <chr>          <dbl> <int>     <dbl> <chr>               
    ##  1   100     1 rmse    standard   56413.       10 678.      Preprocessor1_Model…
    ##  2   100     1 rsq     standard       0.860    10   0.00487 Preprocessor1_Model…
    ##  3   150     1 rmse    standard   56277.       10 768.      Preprocessor1_Model…
    ##  4   150     1 rsq     standard       0.861    10   0.00469 Preprocessor1_Model…
    ##  5   200     1 rmse    standard   56358.       10 763.      Preprocessor1_Model…
    ##  6   200     1 rsq     standard       0.861    10   0.00467 Preprocessor1_Model…
    ##  7   250     1 rmse    standard   56312.       10 804.      Preprocessor1_Model…
    ##  8   250     1 rsq     standard       0.861    10   0.00481 Preprocessor1_Model…
    ##  9   300     1 rmse    standard   56167.       10 734.      Preprocessor1_Model…
    ## 10   300     1 rsq     standard       0.862    10   0.00454 Preprocessor1_Model…
    ## # … with 40 more rows
…
